%YAML 1.1
%TAG !u! tag:unity3d.com,2011:
--- !u!114 &11400000
MonoBehaviour:
  m_ObjectHideFlags: 0
  m_CorrespondingSourceObject: {fileID: 0}
  m_PrefabInstance: {fileID: 0}
  m_PrefabAsset: {fileID: 0}
  m_GameObject: {fileID: 0}
  m_Enabled: 1
  m_EditorHideFlags: 0
  m_Script: {fileID: 11500000, guid: bbb281ee3bf0b054c82ac2347e9e782c, type: 3}
  m_Name: Localization-Locales
  m_EditorClassIdentifier: 
  m_GroupName: Localization-Locales
  m_Data:
    m_SerializedData: []
  m_GUID: a324638759d8cf146b79fd9ac61957be
  m_SerializeEntries:
  - m_GUID: c3d1b8ac75a3485458226ff28d765b18
    m_Address: English (en)
    m_ReadOnly: 1
    m_SerializedLabels:
    - Locale
  - m_GUID: ac60963308767694ea8fc38c0a8f8926
    m_Address: Spanish (es)
    m_ReadOnly: 1
    m_SerializedLabels:
    - Locale
  m_ReadOnly: 1
  m_Settings: {fileID: 11400000, guid: 9e41a27fcafdc0f4ba3b0fb6bbf75a03, type: 2}
  m_SchemaSet:
    m_Schemas:
    - {fileID: 11400000, guid: 00fc32e9883dec84b89a303b19a17706, type: 2}
    - {fileID: 11400000, guid: 45ce652f61686ea4b9c7b842767e8105, type: 2}
