%YAML 1.1
%TAG !u! tag:unity3d.com,2011:
--- !u!1045 &1
EditorBuildSettings:
  m_ObjectHideFlags: 0
  serializedVersion: 2
  m_Scenes:
  - enabled: 1
    path: Assets/Scenes/CharacterCreation.unity
    guid: d59d0207c50f2cf46b069af43fc73af3
  - enabled: 1
    path: Assets/Scenes/MainGame.unity
    guid: ba2409c0da491e3489729c22fa4657b6
  m_configObjects:
    com.unity.addressableassets: {fileID: 11400000, guid: 71194c72120c12c439ea8abf00ee8ab8, type: 2}
    com.unity.localization.settings: {fileID: 11400000, guid: bf2f669e7668bff42be8983a14f2f4cd, type: 2}
